{
    "modules": [],
    "properties": {
        "backendModules": [],
        "description": "",
        "emConf": {
            "category": "templates",
            "custom_category": "",
            "dependsOn": "typo3 => 8.7.0-8.7.99\n",
            "disableLocalization": false,
            "disableVersioning": false,
            "skipGenerateDocumentationTemplate": false,
            "sourceLanguage": "en",
            "state": "alpha",
            "targetVersion": "8.7.0-8.7.99",
            "version": "1.0.0"
        },
        "extensionKey": "t3cbpackage",
        "name": "t3cb-package",
        "originalExtensionKey": "",
        "originalVendorName": "",
        "persons": [],
        "plugins": [],
        "vendorName": "Wwagner"
    },
    "wires": [],
    "log": {
        "last_modified": "2018-06-03 10:15",
        "extension_builder_version": "8.7.0",
        "be_user": " (1)"
    }
}